$TTL 864000
$ORIGIN mdn2.net.
@               IN SOA  ns01.mdn2.net. xuyunfeng.madhouse-inc.com. (
                                201202251   ; serial
                                3600       ; refresh (1 hour)
                                900        ; retry (15 minutes)
                                3600000    ; expire (5 weeks 6 days 16 hours)
                                3600       ; minimum (1 hour)
                                )
                        NS      ns01.mdn2.net.
                        NS      ns02.mdn2.net.
                        NS      ns03.mdn2.net.
                        NS      ns04.mdn2.net.
earth                   NS      ns01.universe.mdn2.net.
earth                   NS      ns02.universe.mdn2.net.
mdn                     NS      ns01.universe.mdn2.net.
mdn                     NS      ns02.universe.mdn2.net.
mdn                     NS      ns03.universe.mdn2.net.
mdn                     NS      ns04.universe.mdn2.net.
universe.mdn2.net.      CNAME   rhinux.earth.mdn2.net.
ns01                    A       211.136.105.207
ns02                    A       211.95.73.229
ns03                    A       222.73.178.72
ns04                    A       184.72.243.215
ns01.universe           A       121.14.17.98
ns02.universe           A       61.152.237.162
ns03.universe           A       221.181.66.11
ns04.universe           A       23.21.171.208
appsrv1                 A       211.136.107.50
www 1200 IN       A       211.136.105.207
appsrv2                 A       211.136.107.50
madhouseafa932e6        A       211.136.105.214
administrator4d0bcc75   A       211.136.105.214
appsrv3 1200 IN       CNAME       madservelb-365301140.ap-southeast-1.elb.amazonaws.com.

@               A      218.207.217.202
monitor 1200 IN A 211.136.107.44
appsrv4 1200 IN A 211.136.107.49
sm2           CNAME   qinghaium.mdn.mdn2.net.
; MX Records


dl-mgogo-com 1200 IN CNAME dl-mgogo-com.qinghaium.mdn.mdn2.net.
origin 	1200 IN  A 	211.136.107.42
